2020-03-24 16:16:38 INFO edu.baylor.ecs.si.Timer <clinit> starting the app
2020-03-24 16:16:38 INFO edu.baylor.ecs.si.Timer timeMe Calling took: 1
2020-03-24 16:16:38 INFO edu.baylor.ecs.si.Timer timeMe * should take: 0
2020-03-24 16:16:38 FINER org.junit.jupiter.engine.execution.ConditionEvaluator logResult Evaluation of condition [org.junit.jupiter.engine.extension.DisabledCondition] resulted in: ConditionEvaluationResult [enabled = true, reason = '@Disabled is not present']
2020-03-24 16:16:38 INFO edu.baylor.ecs.si.Timer timeMe Calling took: 0
2020-03-24 16:16:38 INFO edu.baylor.ecs.si.Timer timeMe * should take: -1
2020-03-24 16:16:38 FINER org.junit.jupiter.engine.execution.ConditionEvaluator logResult Evaluation of condition [org.junit.jupiter.engine.extension.DisabledCondition] resulted in: ConditionEvaluationResult [enabled = true, reason = '@Disabled is not present']
2020-03-24 16:16:39 INFO edu.baylor.ecs.si.Timer timeMe Calling took: 1005
2020-03-24 16:16:39 INFO edu.baylor.ecs.si.Timer timeMe * should take: 1000
